
{
  "response": {
  "version":"0.1",
  "termsofService":"http://www.wunderground.com/weather/api/d/terms.html",
  "features": {
  "forecast": 1
  }
	}
		,
	"forecast":{
		"txt_forecast": {
		"date":"9:00 AM ART",
		"forecastday": [
		{
		"period":0,
		"icon":"mostlycloudy",
		"icon_url":"http://icons-ak.wxug.com/i/c/k/mostlycloudy.gif",
		"title":"Thursday",
		"fcttext":"Overcast. High of 73F. Breezy. Winds from the ENE at 15 to 20 mph.",
		"fcttext_metric":"Overcast. High of 23C. Windy. Winds from the ENE at 25 to 30 km/h.",
		"pop":"0"
		}
		,
		{
		"period":1,
		"icon":"tstorms",
		"icon_url":"http://icons-ak.wxug.com/i/c/k/tstorms.gif",
		"title":"Thursday Night",
		"fcttext":"Overcast with a chance of a thunderstorm and rain, then thunderstorms after midnight. Low of 66F. Breezy. Winds from the ENE at 15 to 20 mph. Chance of rain 70% with rainfall amounts near 0.8 in. possible.",
		"fcttext_metric":"Overcast with a chance of a thunderstorm and rain, then thunderstorms after midnight. Low of 19C. Windy. Winds from the ENE at 25 to 30 km/h. Chance of rain 70% with rainfall amounts near 21.3 mm possible.",
		"pop":"70"
		}
		,
		{
		"period":2,
		"icon":"tstorms",
		"icon_url":"http://icons-ak.wxug.com/i/c/k/tstorms.gif",
		"title":"Friday",
		"fcttext":"Overcast with thunderstorms. Fog early. High of 68F. Breezy. Winds from the NNE at 15 to 25 mph. Chance of rain 90% with rainfall amounts near 0.6 in. possible.",
		"fcttext_metric":"Overcast with thunderstorms. Fog early. High of 20C. Windy. Winds from the NNE at 25 to 35 km/h. Chance of rain 90% with rainfall amounts near 15.5 mm possible.",
		"pop":"90"
		}
		,
		{
		"period":3,
		"icon":"rain",
		"icon_url":"http://icons-ak.wxug.com/i/c/k/rain.gif",
		"title":"Friday Night",
		"fcttext":"Overcast with a chance of a thunderstorm and rain, then a chance of rain after midnight. Low of 61F. Breezy. Winds from the SSW at 15 to 25 mph. Chance of rain 60%.",
		"fcttext_metric":"Overcast with a chance of a thunderstorm and rain, then a chance of rain after midnight. Low of 16C. Windy. Winds from the SSW at 25 to 35 km/h. Chance of rain 60%.",
		"pop":"60"
		}
		,
		{
		"period":4,
		"icon":"mostlycloudy",
		"icon_url":"http://icons-ak.wxug.com/i/c/k/mostlycloudy.gif",
		"title":"Saturday",
		"fcttext":"Overcast. High of 70F. Breezy. Winds from the South at 10 to 20 mph.",
		"fcttext_metric":"Overcast. High of 21C. Windy. Winds from the South at 20 to 30 km/h.",
		"pop":"0"
		}
		,
		{
		"period":5,
		"icon":"partlycloudy",
		"icon_url":"http://icons-ak.wxug.com/i/c/k/partlycloudy.gif",
		"title":"Saturday Night",
		"fcttext":"Partly cloudy. Low of 52F. Winds from the SSE at 10 to 15 mph.",
		"fcttext_metric":"Partly cloudy. Low of 11C. Breezy. Winds from the SSE at 15 to 20 km/h.",
		"pop":"0"
		}
		,
		{
		"period":6,
		"icon":"partlycloudy",
		"icon_url":"http://icons-ak.wxug.com/i/c/k/partlycloudy.gif",
		"title":"Sunday",
		"fcttext":"Overcast. High of 70F. Winds from the South at 5 to 15 mph.",
		"fcttext_metric":"Overcast. High of 21C. Breezy. Winds from the South at 10 to 20 km/h.",
		"pop":"0"
		}
		,
		{
		"period":7,
		"icon":"partlycloudy",
		"icon_url":"http://icons-ak.wxug.com/i/c/k/partlycloudy.gif",
		"title":"Sunday Night",
		"fcttext":"Partly cloudy in the evening, then clear. Low of 55F. Winds from the SE at 5 to 15 mph.",
		"fcttext_metric":"Partly cloudy in the evening, then clear. Low of 13C. Breezy. Winds from the SE at 10 to 20 km/h.",
		"pop":"0"
		}
		]
		},
		"simpleforecast": {
		"forecastday": [
		{"date":{
	"epoch":"1383264000",
	"pretty":"9:00 PM ART on October 31, 2013",
	"day":31,
	"month":10,
	"year":2013,
	"yday":303,
	"hour":21,
	"min":"00",
	"sec":0,
	"isdst":"0",
	"monthname":"October",
	"monthname_short":"Oct",
	"weekday_short":"Thu",
	"weekday":"Thursday",
	"ampm":"PM",
	"tz_short":"ART",
	"tz_long":"America/Buenos_Aires"
},
		"period":1,
		"high": {
		"fahrenheit":"73",
		"celsius":"23"
		},
		"low": {
		"fahrenheit":"66",
		"celsius":"19"
		},
		"conditions":"Mostly Cloudy",
		"icon":"mostlycloudy",
		"icon_url":"http://icons-ak.wxug.com/i/c/k/mostlycloudy.gif",
		"skyicon":"cloudy",
		"pop":0,
		"qpf_allday": {
		"in": 0.01,
		"mm": 0.3
		},
		"qpf_day": {
		"in": 0.00,
		"mm": 0.0
		},
		"qpf_night": {
		"in": 0.84,
		"mm": 21.3
		},
		"snow_allday": {
		"in": 0,
		"cm": 0
		},
		"snow_day": {
		"in": 0,
		"cm": 0
		},
		"snow_night": {
		"in": 0,
		"cm": 0
		},
		"maxwind": {
		"mph": 17,
		"kph": 27,
		"dir": "ENE",
		"degrees": 57
		},
		"avewind": {
		"mph": 14,
		"kph": 22,
		"dir": "ENE",
		"degrees": 66
		},
		"avehumidity": 71,
		"maxhumidity": 78,
		"minhumidity": 52
		}
		,
		{"date":{
	"epoch":"1383350400",
	"pretty":"9:00 PM ART on November 01, 2013",
	"day":1,
	"month":11,
	"year":2013,
	"yday":304,
	"hour":21,
	"min":"00",
	"sec":0,
	"isdst":"0",
	"monthname":"November",
	"monthname_short":"Nov",
	"weekday_short":"Fri",
	"weekday":"Friday",
	"ampm":"PM",
	"tz_short":"ART",
	"tz_long":"America/Buenos_Aires"
},
		"period":2,
		"high": {
		"fahrenheit":"68",
		"celsius":"20"
		},
		"low": {
		"fahrenheit":"61",
		"celsius":"16"
		},
		"conditions":"Thunderstorm",
		"icon":"tstorms",
		"icon_url":"http://icons-ak.wxug.com/i/c/k/tstorms.gif",
		"skyicon":"cloudy",
		"pop":90,
		"qpf_allday": {
		"in": 1.52,
		"mm": 38.6
		},
		"qpf_day": {
		"in": 0.61,
		"mm": 15.5
		},
		"qpf_night": {
		"in": 0.08,
		"mm": 2.0
		},
		"snow_allday": {
		"in": 0,
		"cm": 0
		},
		"snow_day": {
		"in": 0,
		"cm": 0
		},
		"snow_night": {
		"in": 0,
		"cm": 0
		},
		"maxwind": {
		"mph": 21,
		"kph": 34,
		"dir": "NE",
		"degrees": 45
		},
		"avewind": {
		"mph": 13,
		"kph": 21,
		"dir": "SSW",
		"degrees": 194
		},
		"avehumidity": 88,
		"maxhumidity": 100,
		"minhumidity": 72
		}
		,
		{"date":{
	"epoch":"1383436800",
	"pretty":"9:00 PM ART on November 02, 2013",
	"day":2,
	"month":11,
	"year":2013,
	"yday":305,
	"hour":21,
	"min":"00",
	"sec":0,
	"isdst":"0",
	"monthname":"November",
	"monthname_short":"Nov",
	"weekday_short":"Sat",
	"weekday":"Saturday",
	"ampm":"PM",
	"tz_short":"ART",
	"tz_long":"America/Buenos_Aires"
},
		"period":3,
		"high": {
		"fahrenheit":"70",
		"celsius":"21"
		},
		"low": {
		"fahrenheit":"52",
		"celsius":"11"
		},
		"conditions":"Mostly Cloudy",
		"icon":"mostlycloudy",
		"icon_url":"http://icons-ak.wxug.com/i/c/k/mostlycloudy.gif",
		"skyicon":"mostlycloudy",
		"pop":0,
		"qpf_allday": {
		"in": 0.00,
		"mm": 0.0
		},
		"qpf_day": {
		"in": 0.00,
		"mm": 0.0
		},
		"qpf_night": {
		"in": 0.00,
		"mm": 0.0
		},
		"snow_allday": {
		"in": 0,
		"cm": 0
		},
		"snow_day": {
		"in": 0,
		"cm": 0
		},
		"snow_night": {
		"in": 0,
		"cm": 0
		},
		"maxwind": {
		"mph": 16,
		"kph": 26,
		"dir": "South",
		"degrees": 177
		},
		"avewind": {
		"mph": 11,
		"kph": 18,
		"dir": "SSE",
		"degrees": 164
		},
		"avehumidity": 72,
		"maxhumidity": 82,
		"minhumidity": 64
		}
		,
		{"date":{
	"epoch":"1383523200",
	"pretty":"9:00 PM ART on November 03, 2013",
	"day":3,
	"month":11,
	"year":2013,
	"yday":306,
	"hour":21,
	"min":"00",
	"sec":0,
	"isdst":"0",
	"monthname":"November",
	"monthname_short":"Nov",
	"weekday_short":"Sun",
	"weekday":"Sunday",
	"ampm":"PM",
	"tz_short":"ART",
	"tz_long":"America/Buenos_Aires"
},
		"period":4,
		"high": {
		"fahrenheit":"70",
		"celsius":"21"
		},
		"low": {
		"fahrenheit":"55",
		"celsius":"13"
		},
		"conditions":"Partly Cloudy",
		"icon":"partlycloudy",
		"icon_url":"http://icons-ak.wxug.com/i/c/k/partlycloudy.gif",
		"skyicon":"partlycloudy",
		"pop":0,
		"qpf_allday": {
		"in": 0.00,
		"mm": 0.0
		},
		"qpf_day": {
		"in": 0.00,
		"mm": 0.0
		},
		"qpf_night": {
		"in": 0.00,
		"mm": 0.0
		},
		"snow_allday": {
		"in": 0,
		"cm": 0
		},
		"snow_day": {
		"in": 0,
		"cm": 0
		},
		"snow_night": {
		"in": 0,
		"cm": 0
		},
		"maxwind": {
		"mph": 11,
		"kph": 18,
		"dir": "South",
		"degrees": 171
		},
		"avewind": {
		"mph": 6,
		"kph": 10,
		"dir": "SE",
		"degrees": 139
		},
		"avehumidity": 62,
		"maxhumidity": 82,
		"minhumidity": 55
		}
		]
		}
	}
}

